…
── Column specification ─────────────────────────────────────────────────────────────────────────────────────────────────────────────────
cols(
  Grp = col_character(),
  Group = col_double(),
  ID = col_double(),
  Day = col_double(),
  Size = col_double()
)
~~~
{: .output}



~~~
# A tibble: 574 x 5
   Grp   Group    ID   Day   Size
   <chr> <dbl> <dbl> <dbl>  <dbl>
 1 1.CTR     1   101     0   41.8
 2 1.CTR     1   101     3   85  
 3 1.CTR     1   101     4  114  
 4 1.CTR     1   101     5  162. 
 5 1.CTR     1   101     6  178. 
 6 1.CTR     1   101     7  325  
 7 1.CTR     1   101    10  624. 
 8 1.CTR     1   101    11  648. 
 9 1.CTR     1   101    12  836. 
10 1.CTR     1   101    13 1030. 
# … with 564 more rows
…
To look at our dataset we can execute *just* the variable we assigned the dataset to.


~~~
tumor
~~~
{: .language-r}



~~~
# A tibble: 574 x 5
   Grp   Group    ID   Day   Size
   <chr> <dbl> <dbl> <dbl>  <dbl>
 1 1.CTR     1   101     0   41.8
 2 1.CTR     1   101     3   85  
 3 1.CTR     1   101     4  114  
 4 1.CTR     1   101     5  162. 
 5 1.CTR     1   101     6  178. 
 6 1.CTR     1   101     7  325  
 7 1.CTR     1   101    10  624. 
 8 1.CTR     1   101    11  648. 
 9 1.CTR     1   101    12  836. 
10 1.CTR     1   101    13 1030. 
# … with 564 more rows
…
~~~
# The same shortcut works for rows --
# To select the first column across all rows:
tumor[, 1]
~~~
{: .language-r}



~~~
# A tibble: 574 x 1
   Grp  
   <chr>
 1 1.CTR
 2 1.CTR
 3 1.CTR
 4 1.CTR
 5 1.CTR
 6 1.CTR
 7 1.CTR
 8 1.CTR
 9 1.CTR
10 1.CTR
# … with 564 more rows
~~~
{: .output}



~~~
# An even shorter way to select first column across all rows:
tumor[1] # No comma! 
~~~
{: .language-r}



~~~
# A tibble: 574 x 1
   Grp  
   <chr>
 1 1.CTR
 2 1.CTR
 3 1.CTR
 4 1.CTR
 5 1.CTR
 6 1.CTR
 7 1.CTR
 8 1.CTR
 9 1.CTR
10 1.CTR
# … with 564 more rows
…
`:` is a special function that creates numeric vectors of integers in increasing
or decreasing order, test `1:10` and `10:1` for instance.

You can also exclude certain indices of a data frame using the "`-`" sign:


~~~
tumor[, -1]                 # The whole data frame, except the first column
~~~
{: .language-r}



~~~
# A tibble: 574 x 4
   Group    ID   Day   Size
   <dbl> <dbl> <dbl>  <dbl>
 1     1   101     0   41.8
 2     1   101     3   85  
 3     1   101     4  114  
 4     1   101     5  162. 
 5     1   101     6  178. 
 6     1   101     7  325  
 7     1   101    10  624. 
 8     1   101    11  648. 
 9     1   101    12  836. 
10     1   101    13 1030. 
# … with 564 more rows
…
