…
Now that we know how to find our files, let's load up our first data set.
When trying to type in a file path,
you can hit the `<TAB>` key to autocomplete the files.
This will help you with a lot of potential spelling mistakes.


~~~
read_csv("../data/medicaldata_tumorgrowth.csv")
~~~
{: .language-r}



~~~
# A tibble: 574 x 5
   Grp   Group    ID   Day   Size
   <chr> <dbl> <dbl> <dbl>  <dbl>
 1 1.CTR     1   101     0   41.8
 2 1.CTR     1   101     3   85  
 3 1.CTR     1   101     4  114  
 4 1.CTR     1   101     5  162. 
 5 1.CTR     1   101     6  178. 
 6 1.CTR     1   101     7  325  
 7 1.CTR     1   101    10  624. 
 8 1.CTR     1   101    11  648. 
 9 1.CTR     1   101    12  836. 
10 1.CTR     1   101    13 1030. 
# … with 564 more rows
…
To look at our dataset we can execute *just* the variable we assigned the dataset to.


~~~
tumor
~~~
{: .language-r}



~~~
# A tibble: 574 x 5
   Grp   Group    ID   Day   Size
   <chr> <dbl> <dbl> <dbl>  <dbl>
 1 1.CTR     1   101     0   41.8
 2 1.CTR     1   101     3   85  
 3 1.CTR     1   101     4  114  
 4 1.CTR     1   101     5  162. 
 5 1.CTR     1   101     6  178. 
 6 1.CTR     1   101     7  325  
 7 1.CTR     1   101    10  624. 
 8 1.CTR     1   101    11  648. 
 9 1.CTR     1   101    12  836. 
10 1.CTR     1   101    13 1030. 
# … with 564 more rows
…
## Selecting columns

Here is the tumor dataset we are working with.


~~~
tumor
~~~
{: .language-r}



~~~
# A tibble: 574 x 5
   Grp   Group    ID   Day   Size
   <chr> <dbl> <dbl> <dbl>  <dbl>
 1 1.CTR     1   101     0   41.8
 2 1.CTR     1   101     3   85  
 3 1.CTR     1   101     4  114  
 4 1.CTR     1   101     5  162. 
 5 1.CTR     1   101     6  178. 
 6 1.CTR     1   101     7  325  
 7 1.CTR     1   101    10  624. 
 8 1.CTR     1   101    11  648. 
 9 1.CTR     1   101    12  836. 
10 1.CTR     1   101    13 1030. 
# … with 564 more rows
…
In order to subset the columns of our dataset, we can use the `select` function.
The **first** **argument** of the `select` function is the dataset we want to select columns from.
Then, the other arguments are the columns we want to select.



~~~
select(tumor, Size)
~~~
{: .language-r}



~~~
# A tibble: 574 x 1
     Size
    <dbl>
 1   41.8
 2   85  
 3  114  
 4  162. 
 5  178. 
 6  325  
 7  624. 
 8  648. 
 9  836. 
10 1030. 
# … with 564 more rows
~~~
{: .output}

If we want multiple columns (or to re-order columns) we can specify each column we want selected.


~~~
select(tumor, Group, Day, Size)
~~~
{: .language-r}



~~~
# A tibble: 574 x 3
   Group   Day   Size
   <dbl> <dbl>  <dbl>
 1     1     0   41.8
 2     1     3   85  
 3     1     4  114  
 4     1     5  162. 
 5     1     6  178. 
 6     1     7  325  
 7     1    10  624. 
 8     1    11  648. 
 9     1    12  836. 
10     1    13 1030. 
# … with 564 more rows
…
~~~
tumor %>%
  select(Size)
~~~
{: .language-r}



~~~
# A tibble: 574 x 1
     Size
    <dbl>
 1   41.8
 2   85  
 3  114  
 4  162. 
 5  178. 
 6  325  
 7  624. 
 8  648. 
 9  836. 
10 1030. 
# … with 564 more rows
…
The way we pronounce the pipe, `%>%` is "then".
So the above statement is read "tumor, then, select size".


~~~
tumor %>%
  select(Group, Day, Size)
~~~
{: .language-r}



~~~
# A tibble: 574 x 3
   Group   Day   Size
   <dbl> <dbl>  <dbl>
 1     1     0   41.8
 2     1     3   85  
 3     1     4  114  
 4     1     5  162. 
 5     1     6  178. 
 6     1     7  325  
 7     1    10  624. 
 8     1    11  648. 
 9     1    12  836. 
10     1    13 1030. 
# … with 564 more rows
…
For example if we want to filter the `tumor` dataset such that the `Group` value is `1` we can filter the rows using that condition.


~~~
filter(tumor, Group == 1)
~~~
{: .language-r}



~~~
# A tibble: 97 x 5
   Grp   Group    ID   Day   Size
   <chr> <dbl> <dbl> <dbl>  <dbl>
 1 1.CTR     1   101     0   41.8
 2 1.CTR     1   101     3   85  
 3 1.CTR     1   101     4  114  
 4 1.CTR     1   101     5  162. 
 5 1.CTR     1   101     6  178. 
 6 1.CTR     1   101     7  325  
 7 1.CTR     1   101    10  624. 
 8 1.CTR     1   101    11  648. 
 9 1.CTR     1   101    12  836. 
10 1.CTR     1   101    13 1030. 
# … with 87 more rows
…
We can write the "pipe" version as such:


~~~
tumor %>%
  filter(Group == 1)
~~~
{: .language-r}



~~~
# A tibble: 97 x 5
   Grp   Group    ID   Day   Size
   <chr> <dbl> <dbl> <dbl>  <dbl>
 1 1.CTR     1   101     0   41.8
 2 1.CTR     1   101     3   85  
 3 1.CTR     1   101     4  114  
 4 1.CTR     1   101     5  162. 
 5 1.CTR     1   101     6  178. 
 6 1.CTR     1   101     7  325  
 7 1.CTR     1   101    10  624. 
 8 1.CTR     1   101    11  648. 
 9 1.CTR     1   101    12  836. 
10 1.CTR     1   101    13 1030. 
# … with 87 more rows
…
Or use the `|` for the **or** operator.


~~~
tumor %>%
  filter(Day == 0 | Day == 13)
~~~
{: .language-r}



~~~
# A tibble: 60 x 5
   Grp   Group    ID   Day   Size
   <chr> <dbl> <dbl> <dbl>  <dbl>
 1 1.CTR     1   101     0   41.8
 2 1.CTR     1   101    13 1030. 
 3 1.CTR     1   102     0   79.4
 4 1.CTR     1   102    13  619. 
 5 1.CTR     1   103     0   44.8
 6 1.CTR     1   104     0   67.7
 7 1.CTR     1   105     0   54.7
 8 1.CTR     1   105    13 1699. 
 9 1.CTR     1   106     0   60  
10 1.CTR     1   107     0   46.8
# … with 50 more rows
…
~~~
filtered
~~~
{: .language-r}



~~~
# A tibble: 60 x 4
   Group    ID   Day   Size
   <dbl> <dbl> <dbl>  <dbl>
 1     1   101     0   41.8
 2     1   101    13 1030. 
 3     1   102     0   79.4
 4     1   102    13  619. 
 5     1   103     0   44.8
 6     1   104     0   67.7
 7     1   105     0   54.7
 8     1   105    13 1699. 
 9     1   106     0   60  
10     1   107     0   46.8
# … with 50 more rows
…
