…
~~~
tumor_subset
~~~
{: .language-r}



~~~
# A tibble: 60 x 4
   Group    ID   Day   Size
   <dbl> <dbl> <dbl>  <dbl>
 1     1   101     0   41.8
 2     1   101    13 1030. 
 3     1   102     0   79.4
 4     1   102    13  619. 
 5     1   103     0   44.8
 6     1   104     0   67.7
 7     1   105     0   54.7
 8     1   105    13 1699. 
 9     1   106     0   60  
10     1   107     0   46.8
# … with 50 more rows
…
