…
You can read more about the dataset and study in the codebook for
["Mixed-Effects Modeling of Tumor Growth in Animal Xenograft Experiments"](https://github.com/higgi13425/medicaldata/blob/master/description_docs/tumorgrowth_desc.pdf)


~~~
tumor
~~~
{: .language-r}



~~~
# A tibble: 37 x 32
   Group Grp      ID   `0`   `1`   `2`   `3`   `4`   `5`   `6`   `7`   `8`   `9`
   <dbl> <chr> <dbl> <dbl> <dbl> <dbl> <dbl> <dbl> <dbl> <dbl> <dbl> <dbl> <dbl>
 1     1 1.CTR   101  41.8  NA    NA    85   114    162.  178.  325    NA    NA 
 2     1 1.CTR   102  79.4 110.   NA    NA   201.   255.  349.  358.  670    NA 
 3     1 1.CTR   103  44.8  67.5  55.8  82.8 107.    NA    NA   310.  356.  555.
 4     1 1.CTR   104  67.7  92.4  77.7 107.  147.    NA    NA   226.  285.  542.
 5     1 1.CTR   105  54.7  NA    NA    61.1  75.3  112.  118.  165.   NA    NA 
 6     1 1.CTR   106  60    74.2  98.9 103.  106.    NA    NA   166.  269.  478.
 7     1 1.CTR   107  46.8  NA    NA    NA   163.   264.  253.  419.   NA    NA 
 8     1 1.CTR   108  49.4  NA    NA    NA   123.   286.  485.  584.   NA    NA 
 9     2 2.D     201  49.1  NA    NA    65.6  88.9  135.  172.  177.   NA    NA 
10     2 2.D     202  60.6  75.7  75.8  NA   159.    NA    NA   306.  397.  398.
# … with 27 more rows, and 19 more variables: 10 <dbl>, 11 <dbl>, 12 <dbl>,
#   13 <dbl>, 14 <dbl>, 15 <dbl>, 16 <dbl>, 17 <dbl>, 18 <dbl>, 19 <dbl>,
#   20 <dbl>, 21 <dbl>, 22 <dbl>, 23 <dbl>, 24 <dbl>, 25 <dbl>, 26 <dbl>,
#   27 <dbl>, 28 <dbl>
…
~~~
tumor_tidy <- tumor %>%
  pivot_longer(`0`:last_col(), names_to = "day", values_to = "size")
tumor_tidy
~~~
{: .language-r}



~~~
# A tibble: 1,073 x 5
   Group Grp      ID day    size
   <dbl> <chr> <dbl> <chr> <dbl>
 1     1 1.CTR   101 0      41.8
 2     1 1.CTR   101 1      NA  
 3     1 1.CTR   101 2      NA  
 4     1 1.CTR   101 3      85  
 5     1 1.CTR   101 4     114  
 6     1 1.CTR   101 5     162. 
 7     1 1.CTR   101 6     178. 
 8     1 1.CTR   101 7     325  
 9     1 1.CTR   101 8      NA  
10     1 1.CTR   101 9      NA  
# … with 1,063 more rows
…
~~~
`summarise()` has grouped output by 'Group'. You can override using the `.groups` argument.
~~~
{: .output}



~~~
# A tibble: 116 x 3
# Groups:   Group [4]
   Group   day avg_size
   <dbl> <dbl>    <dbl>
 1     1     0     55.6
 2     1     1     86.1
 3     1     2     77.5
 4     1     3     87.9
 5     1     4    130. 
 6     1     5    216. 
 7     1     6    277. 
 8     1     7    319. 
 9     1     8    395. 
10     1     9    525. 
# … with 106 more rows
…
Let's go through this example from the paper ourselves.


~~~
# read the tb dataset
tb <- read_csv("../data/tb_long.csv")
tb
~~~
{: .language-r}



~~~
# A tibble: 201 x 18
   country  year  m014 m1524 m2534 m3544 m4554 m5564   m65 mu     f014 f1524
   <chr>   <dbl> <dbl> <dbl> <dbl> <dbl> <dbl> <dbl> <dbl> <lgl> <dbl> <dbl>
 1 AD       2000     0     0     1     0     0     0     0 NA       NA    NA
 2 AE       2000     2     4     4     6     5    12    10 NA        3    16
 3 AF       2000    52   228   183   149   129    94    80 NA       93   414
 4 AG       2000     0     0     0     0     0     0     1 NA        1     1
 5 AL       2000     2    19    21    14    24    19    16 NA        3    11
 6 AM       2000     2   152   130   131    63    26    21 NA        1    24
 7 AN       2000     0     0     1     2     0     0     0 NA        0     0
 8 AO       2000   186   999  1003   912   482   312   194 NA      247  1142
 9 AR       2000    97   278   594   402   419   368   330 NA      121   544
10 AS       2000    NA    NA    NA    NA     1     1    NA NA       NA    NA
# … with 191 more rows, and 6 more variables: f2534 <dbl>, f3544 <dbl>,
#   f4554 <dbl>, f5564 <dbl>, f65 <dbl>, fu <lgl>
…
~~~
tb_long <- tb %>%
  pivot_longer(starts_with(c('m', 'f')))
tb_long
~~~
{: .language-r}



~~~
# A tibble: 3,216 x 4
   country  year name  value
   <chr>   <dbl> <chr> <dbl>
 1 AD       2000 m014      0
 2 AD       2000 m1524     0
 3 AD       2000 m2534     1
 4 AD       2000 m3544     0
 5 AD       2000 m4554     0
 6 AD       2000 m5564     0
 7 AD       2000 m65       0
 8 AD       2000 mu       NA
 9 AD       2000 f014     NA
10 AD       2000 f1524    NA
# … with 3,206 more rows
…
Now that we have the "long" dataset, we can use the `separate` function to separate out the information in that column.


~~~
tb_tidy <- tb_long %>%
  separate(name, into = c("sex", "age_group"), sep = 1)
tb_tidy
~~~
{: .language-r}



~~~
# A tibble: 3,216 x 5
   country  year sex   age_group value
   <chr>   <dbl> <chr> <chr>     <dbl>
 1 AD       2000 m     014           0
 2 AD       2000 m     1524          0
 3 AD       2000 m     2534          1
 4 AD       2000 m     3544          0
 5 AD       2000 m     4554          0
 6 AD       2000 m     5564          0
 7 AD       2000 m     65            0
 8 AD       2000 m     u            NA
 9 AD       2000 f     014          NA
10 AD       2000 f     1524         NA
# … with 3,206 more rows
…
<img src="../fig/tidy_paper-table_12-weather_tidy.PNG" title="Table 12 from the &quot;Tidy Data&quot; paper" alt="Table 12 from the &quot;Tidy Data&quot; paper" style="display: block; margin: auto;" />

We can load up the CMS utilization dataset that gives us CMS utilization rates by state, demographics, year, and measurement.


~~~
cms <- read_csv("../data/cms_utilization.csv")
cms
~~~
{: .language-r}



~~~
# A tibble: 3,456 x 17
   state  state_fips variable   sex   age_group num_chronic `2007` `2008` `2009`
   <chr>  <chr>      <chr>      <chr> <chr>     <chr>        <dbl>  <dbl>  <dbl>
 1 Alaba… 01         Per Capit… males Less tha… 0 to 1       1594.  1640.  1680.
 2 Alaba… 01         Per Capit… males Less tha… 2 to 3       6269.  6484.  6339.
 3 Alaba… 01         Per Capit… males Less tha… 4 to 5      12902. 13400. 13713.
 4 Alaba… 01         Per Capit… males Less tha… 6+          31169. 32837. 33190.
 5 Alaba… 01         Per Capit… males Less tha… 0 to 1       1745.  1794.  1829.
 6 Alaba… 01         Per Capit… males Less tha… 2 to 3       6752.  7035.  6816.
 7 Alaba… 01         Per Capit… males Less tha… 4 to 5      13796. 14385. 14596.
 8 Alaba… 01         Per Capit… males Less tha… 6+          32779. 34641. 34879.
 9 Alaba… 01         ED Visits… males Less tha… 0 to 1        398.   410.   411.
10 Alaba… 01         ED Visits… males Less tha… 2 to 3        865.   865.   852.
# … with 3,446 more rows, and 8 more variables: 2010 <dbl>, 2011 <dbl>,
#   2012 <dbl>, 2013 <dbl>, 2014 <dbl>, 2015 <dbl>, 2016 <dbl>, 2017 <dbl>
…
We can make our data "long" just like before.


~~~
cms_long <- cms %>%
  pivot_longer(`2007`:last_col(), names_to = "year")
cms_long
~~~
{: .language-r}



~~~
# A tibble: 38,016 x 8
   state  state_fips variable         sex   age_group    num_chronic year  value
   <chr>  <chr>      <chr>            <chr> <chr>        <chr>       <chr> <dbl>
 1 Alaba… 01         Per Capita Spen… males Less than 6… 0 to 1      2007  1594.
 2 Alaba… 01         Per Capita Spen… males Less than 6… 0 to 1      2008  1640.
 3 Alaba… 01         Per Capita Spen… males Less than 6… 0 to 1      2009  1680.
 4 Alaba… 01         Per Capita Spen… males Less than 6… 0 to 1      2010  1599.
 5 Alaba… 01         Per Capita Spen… males Less than 6… 0 to 1      2011  1612.
 6 Alaba… 01         Per Capita Spen… males Less than 6… 0 to 1      2012  1695.
 7 Alaba… 01         Per Capita Spen… males Less than 6… 0 to 1      2013  1729.
 8 Alaba… 01         Per Capita Spen… males Less than 6… 0 to 1      2014  1791.
 9 Alaba… 01         Per Capita Spen… males Less than 6… 0 to 1      2015  1868.
10 Alaba… 01         Per Capita Spen… males Less than 6… 0 to 1      2016  1736.
# … with 38,006 more rows
…
~~~
cms_tidy <- cms_long %>%
  pivot_wider(names_from = variable, values_from = value)
cms_tidy
~~~
{: .language-r}



~~~
# A tibble: 9,504 x 10
   state  state_fips sex   age_group     num_chronic year  `Per Capita Spending…
   <chr>  <chr>      <chr> <chr>         <chr>       <chr>                 <dbl>
 1 Alaba… 01         males Less than 65… 0 to 1      2007                  1594.
 2 Alaba… 01         males Less than 65… 0 to 1      2008                  1640.
 3 Alaba… 01         males Less than 65… 0 to 1      2009                  1680.
 4 Alaba… 01         males Less than 65… 0 to 1      2010                  1599.
 5 Alaba… 01         males Less than 65… 0 to 1      2011                  1612.
 6 Alaba… 01         males Less than 65… 0 to 1      2012                  1695.
 7 Alaba… 01         males Less than 65… 0 to 1      2013                  1729.
 8 Alaba… 01         males Less than 65… 0 to 1      2014                  1791.
 9 Alaba… 01         males Less than 65… 0 to 1      2015                  1868.
10 Alaba… 01         males Less than 65… 0 to 1      2016                  1736.
# … with 9,494 more rows, and 3 more variables:
#   Per Capita Spending-Standardized ($) <dbl>,
#   ED Visits per 1,000 Beneficiaries <dbl>,
#   Hospital Readmissions-Percentage (%) <dbl>
…
